[
  {
    "CodProv\nOdbms": 421,
    "id\nSVL": "?",
    "Nombre": "IMPORTADORA SANTA ELENA",
    "Rut": "83498900-K",
    "Cuenta Acceso a  SVL": "isel@svl.cl"
  },
  {
    "CodProv\nOdbms": 553,
    "id\nSVL": 3209,
    "Nombre": "MAR DEL SUR SPA",
    "Rut": "83610800-0",
    "Cuenta Acceso a  SVL": "mardelsur@svl.cl"
  },
  {
    "CodProv\nOdbms": 656,
    "id\nSVL": "?",
    "Nombre": "M Y H COM.E IND",
    "Rut": "80642800-0",
    "Cuenta Acceso a  SVL": "myh@svl.cl"
  },
  {
    "CodProv\nOdbms": 759,
    "id\nSVL": "?",
    "Nombre": "RHOINTER CHILE",
    "Rut": "79887310-5",
    "Cuenta Acceso a  SVL": "rhointer@svl.cl"
  },
  {
    "CodProv\nOdbms": 1378,
    "id\nSVL": "?",
    "Nombre": "DECO EXPRESS",
    "Rut": "76002437-6",
    "Cuenta Acceso a  SVL": "decoexpress@svl.cl"
  },
  {
    "CodProv\nOdbms": 1637,
    "id\nSVL": "?",
    "Nombre": "CANTABRICA CHILE S A",
    "Rut": "76043567-8",
    "Cuenta Acceso a  SVL": "cantabrica@svl.cl"
  },
  {
    "CodProv\nOdbms": 1788,
    "id\nSVL": 2768,
    "Nombre": "COMERCIAL VOS S.A",
    "Rut": "76061334-7",
    "Cuenta Acceso a  SVL": "comercialvos@svl.cl"
  },
  {
    "CodProv\nOdbms": 2145,
    "id\nSVL": "?",
    "Nombre": "VITEPAL",
    "Rut": "88811100-K",
    "Cuenta Acceso a  SVL": "vitepal@svl.cl"
  },
  {
    "CodProv\nOdbms": 2210,
    "id\nSVL": "?",
    "Nombre": "DAP DUCASSE DISENO LTDA",
    "Rut": "76046809-6",
    "Cuenta Acceso a  SVL": "dapducasse@svl.cl"
  },
  {
    "CodProv\nOdbms": 4386,
    "id\nSVL": "?",
    "Nombre": "EL CASTILLO",
    "Rut": "91819000-7",
    "Cuenta Acceso a  SVL": "elcastillo@svl.cl"
  },
  {
    "CodProv\nOdbms": 5000,
    "id\nSVL": "?",
    "Nombre": "ELECTRO ANDINA",
    "Rut": "79602730-4",
    "Cuenta Acceso a  SVL": "electroandina@svl.cl"
  },
  {
    "CodProv\nOdbms": 5443,
    "id\nSVL": "?",
    "Nombre": "FERRIPALDI",
    "Rut": "5890147-4",
    "Cuenta Acceso a  SVL": "ferripaldi@svl.cl"
  },
  {
    "CodProv\nOdbms": 5871,
    "id\nSVL": "?",
    "Nombre": "IMPORTADORA Y DISTRIBUIDORA KW SPA",
    "Rut": "96692160-9",
    "Cuenta Acceso a  SVL": "kw@svl.cl"
  },
  {
    "CodProv\nOdbms": 5945,
    "id\nSVL": "?",
    "Nombre": "COMERCIAL ASPEN S.A.",
    "Rut": "78537730-3",
    "Cuenta Acceso a  SVL": "aspen@svl.cl"
  },
  {
    "CodProv\nOdbms": 7735,
    "id\nSVL": "?",
    "Nombre": "FCA DE FITTINGS Y ARTICULOS SANITARIOS",
    "Rut": "96508810-5",
    "Cuenta Acceso a  SVL": "fas@svl.cl"
  },
  {
    "CodProv\nOdbms": 8285,
    "id\nSVL": "?",
    "Nombre": "COMERCIAL DORAL S.A.",
    "Rut": "79536070-0",
    "Cuenta Acceso a  SVL": "doral@svl.cl"
  },
  {
    "CodProv\nOdbms": 8337,
    "id\nSVL": "?",
    "Nombre": "CDC IMPORT S.A.",
    "Rut": "96950890-7",
    "Cuenta Acceso a  SVL": "cdcimport@svl.cl"
  },
  {
    "CodProv\nOdbms": 9740,
    "id\nSVL": "?",
    "Nombre": "F3C",
    "Rut": "76281760-8",
    "Cuenta Acceso a  SVL": "f3c@svl.cl"
  },
  {
    "CodProv\nOdbms": 72080,
    "id\nSVL": "?",
    "Nombre": "PSL",
    "Rut": "76145145-6",
    "Cuenta Acceso a  SVL": "psl@svl.cl"
  },
  {
    "CodProv\nOdbms": 72341,
    "id\nSVL": "?",
    "Nombre": "DISTRIBUIDORA DE MAQUINAS DE COSER",
    "Rut": "95260000-1",
    "Cuenta Acceso a  SVL": "dismaco@svl.cl"
  },
  {
    "CodProv\nOdbms": 72433,
    "id\nSVL": "?",
    "Nombre": "COMERCIAL TIER S.A",
    "Rut": "76733480-K",
    "Cuenta Acceso a  SVL": "tier@svl.cl"
  },
  {
    "CodProv\nOdbms": 72680,
    "id\nSVL": "?",
    "Nombre": "ARGOS (CHILE) SPA",
    "Rut": "76068955-6",
    "Cuenta Acceso a  SVL": "argos@svl.cl"
  },
  {
    "CodProv\nOdbms": 72714,
    "id\nSVL": "?",
    "Nombre": "SOLUCIONES DE DISENO INTEGRAL S.A",
    "Rut": "76265182-3",
    "Cuenta Acceso a  SVL": "sdi@svl.cl"
  },
  {
    "CodProv\nOdbms": 72860,
    "id\nSVL": "?",
    "Nombre": "KITABCO SPA",
    "Rut": "76079537-2",
    "Cuenta Acceso a  SVL": "kitabco@svl.cl"
  },
  {
    "CodProv\nOdbms": 72864,
    "id\nSVL": 3141,
    "Nombre": "DLA BRANDS",
    "Rut": "76249082-K",
    "Cuenta Acceso a  SVL": "dlabrands@svl.cl"
  },
  {
    "CodProv\nOdbms": 72988,
    "id\nSVL": "?",
    "Nombre": "SIGNIFY CHILENA S.A.",
    "Rut": "76479569-5",
    "Cuenta Acceso a  SVL": "signify@svl.cl"
  },
  {
    "CodProv\nOdbms": 73062,
    "id\nSVL": "?",
    "Nombre": "LAFTRAC LTDA",
    "Rut": "76745520-8",
    "Cuenta Acceso a  SVL": "laftrac@svl.cl"
  },
  {
    "CodProv\nOdbms": 73078,
    "id\nSVL": "?",
    "Nombre": "IMPRESIONARTE",
    "Rut": "76154013-0",
    "Cuenta Acceso a  SVL": "impresionarte@svl.cl"
  },
  {
    "CodProv\nOdbms": 74562,
    "id\nSVL": 2679,
    "Nombre": "CROSS INDUSTRIAL Y COMERCIAL LTDA.",
    "Rut": "77181670-3",
    "Cuenta Acceso a  SVL": "crossindustrial@svl.cl"
  },
  {
    "CodProv\nOdbms": 74587,
    "id\nSVL": "?",
    "Nombre": "AGUAIR SPA",
    "Rut": "76964382-6",
    "Cuenta Acceso a  SVL": "aguair@svl.cl"
  },
  {
    "CodProv\nOdbms": 74629,
    "id\nSVL": "?",
    "Nombre": "PUNTO SOLAR",
    "Rut": "76099496-0",
    "Cuenta Acceso a  SVL": "puntosolar@svl.cl"
  },
  {
    "CodProv\nOdbms": 74637,
    "id\nSVL": "?",
    "Nombre": "ARTEFACTORY",
    "Rut": "76945333-4",
    "Cuenta Acceso a  SVL": "artefactory@svl.cl"
  },
  {
    "CodProv\nOdbms": 74638,
    "id\nSVL": "?",
    "Nombre": "DECOGREEN",
    "Rut": "76347912-9",
    "Cuenta Acceso a  SVL": "decogreen@svl.cl"
  },
  {
    "CodProv\nOdbms": 74652,
    "id\nSVL": "?",
    "Nombre": "DERCO CHILE REPUESTOS S.A",
    "Rut": "94340000-8",
    "Cuenta Acceso a  SVL": "derco@svl.cl"
  },
  {
    "CodProv\nOdbms": 74680,
    "id\nSVL": "?",
    "Nombre": "CARDELO SPA",
    "Rut": "76928057-K",
    "Cuenta Acceso a  SVL": "cardelo@svl.cl"
  },
  {
    "CodProv\nOdbms": 74721,
    "id\nSVL": 3286,
    "Nombre": "INVERSIONES ECOP LIMITADA",
    "Rut": "76511605-8",
    "Cuenta Acceso a  SVL": "ecop@svl.cl"
  },
  {
    "CodProv\nOdbms": 74744,
    "id\nSVL": "?",
    "Nombre": "NINA HERRERA",
    "Rut": "78298360-1",
    "Cuenta Acceso a  SVL": "ninaherrera@svl.cl"
  },
  {
    "CodProv\nOdbms": 74763,
    "id\nSVL": "?",
    "Nombre": "SIMTA",
    "Rut": "77991140-3",
    "Cuenta Acceso a  SVL": "simta@svl.cl"
  },
  {
    "CodProv\nOdbms": 74785,
    "id\nSVL": "?",
    "Nombre": "RETELA",
    "Rut": "76514093-5",
    "Cuenta Acceso a  SVL": "retela@svl.cl"
  },
  {
    "CodProv\nOdbms": 74891,
    "id\nSVL": "?",
    "Nombre": "VERONICA BLACKBURN Y CIA LTDA",
    "Rut": "77036400-0",
    "Cuenta Acceso a  SVL": "veronicablackburn@svl.cl"
  },
  {
    "CodProv\nOdbms": 74913,
    "id\nSVL": "?",
    "Nombre": "BRIGITTE LAHSEN",
    "Rut": "7741562-9",
    "Cuenta Acceso a  SVL": "brigittelahsen@svl.cl"
  },
  {
    "CodProv\nOdbms": 74924,
    "id\nSVL": "?",
    "Nombre": "DOCA DISENO SOCIEDAD LIMITADA",
    "Rut": "76221072-K",
    "Cuenta Acceso a  SVL": "docadiseno@svl.cl"
  },
  {
    "CodProv\nOdbms": 74964,
    "id\nSVL": "?",
    "Nombre": "BOCETO  LIMITADA",
    "Rut": "76298009-6",
    "Cuenta Acceso a  SVL": "boceto@svl.cl"
  },
  {
    "CodProv\nOdbms": 75084,
    "id\nSVL": "?",
    "Nombre": "OSMOAQUA SPA",
    "Rut": "76790046-5",
    "Cuenta Acceso a  SVL": "osmoaqua@svl.cl"
  },
  {
    "CodProv\nOdbms": 75132,
    "id\nSVL": "?",
    "Nombre": "FORM DESIGN",
    "Rut": "76067326-9",
    "Cuenta Acceso a  SVL": "formdesign@svl.cl"
  },
  {
    "CodProv\nOdbms": 75252,
    "id\nSVL": 547,
    "Nombre": "LED STUDIO",
    "Rut": "76927160-0",
    "Cuenta Acceso a  SVL": "ledstudio@svl.cl"
  },
  {
    "CodProv\nOdbms": 75282,
    "id\nSVL": "?",
    "Nombre": "TOPSHOE",
    "Rut": "76766321-8",
    "Cuenta Acceso a  SVL": "topshoe@svl.cl"
  },
  {
    "CodProv\nOdbms": 75292,
    "id\nSVL": "?",
    "Nombre": "NATURALINO HOME",
    "Rut": "76224248-6",
    "Cuenta Acceso a  SVL": "naturalinohome@svl.cl"
  },
  {
    "CodProv\nOdbms": 75365,
    "id\nSVL": "?",
    "Nombre": "PROTECTO S A",
    "Rut": "99589720-2",
    "Cuenta Acceso a  SVL": "protecto@svl.cl"
  },
  {
    "CodProv\nOdbms": 75369,
    "id\nSVL": "?",
    "Nombre": "COQUINARIA",
    "Rut": "76009466-8",
    "Cuenta Acceso a  SVL": "coquinaria@svl.cl"
  },
  {
    "CodProv\nOdbms": 75416,
    "id\nSVL": "?",
    "Nombre": "COMERCIALIZADORA IBIKES S.A",
    "Rut": "76022682-3",
    "Cuenta Acceso a  SVL": "ibikes@svl.cl"
  },
  {
    "CodProv\nOdbms": 100006,
    "id\nSVL": 2461,
    "Nombre": "MAXIMA DESIGN",
    "Rut": "76720491-4",
    "Cuenta Acceso a  SVL": "maximadesign@svl.cl"
  },
  {
    "CodProv\nOdbms": 100033,
    "id\nSVL": 3027,
    "Nombre": "LA BELLEZA DE LAS COSAS",
    "Rut": "76386183-K",
    "Cuenta Acceso a  SVL": "labelleza@svl.cl"
  },
  {
    "CodProv\nOdbms": 100037,
    "id\nSVL": 3076,
    "Nombre": "SMARTGOODS",
    "Rut": "76082146-2",
    "Cuenta Acceso a  SVL": "smartgoods@svl.cl"
  },
  {
    "CodProv\nOdbms": 100045,
    "id\nSVL": 2923,
    "Nombre": "INTELCAM",
    "Rut": "76361295-3",
    "Cuenta Acceso a  SVL": "intelcam@svl.cl"
  },
  {
    "CodProv\nOdbms": 100053,
    "id\nSVL": "?",
    "Nombre": "IMPORTADORA CHERRY BLOSSOM SPA",
    "Rut": "76837319-1",
    "Cuenta Acceso a  SVL": "cherry@svl.cl"
  },
  {
    "CodProv\nOdbms": 100068,
    "id\nSVL": 2957,
    "Nombre": "ESTRELLA BRILLANTE",
    "Rut": "76862209-4",
    "Cuenta Acceso a  SVL": "estrellabrillante@svl.cl"
  },
  {
    "CodProv\nOdbms": 100070,
    "id\nSVL": 2821,
    "Nombre": "INTERNATIONAL HOME CHILE SPA",
    "Rut": "76986536-5",
    "Cuenta Acceso a  SVL": "internationalhome@svl.cl"
  },
  {
    "CodProv\nOdbms": 1839,
    "id\nSVL": 3229,
    "Nombre": "SERVICIO TECNICO TEJO Y CIA LTDA",
    "Rut": "77799240-6",
    "Cuenta Acceso a  SVL": "tejo@svl.cl"
  },
  {
    "CodProv\nOdbms": 10027,
    "id\nSVL": 2907,
    "Nombre": "MULTIWIRELESS",
    "Rut": "76056463-K",
    "Cuenta Acceso a  SVL": "multiwireless@svl.cl"
  },
  {
    "CodProv\nOdbms": 75096,
    "id\nSVL": 702,
    "Nombre": "SM CHILE",
    "Rut": "76468368-4",
    "Cuenta Acceso a  SVL": "sm@svl.cl"
  },
  {
    "CodProv\nOdbms": 75401,
    "id\nSVL": 921,
    "Nombre": "SHERPY",
    "Rut": "76098398-5",
    "Cuenta Acceso a  SVL": "sherpy@svl.cl"
  },
  {
    "CodProv\nOdbms": 100064,
    "id\nSVL": 2494,
    "Nombre": "MACERATTA",
    "Rut": "76751476-K",
    "Cuenta Acceso a  SVL": "maceratta@svl.cl"
  },
  {
    "CodProv\nOdbms": 100073,
    "id\nSVL": 2659,
    "Nombre": "AUTORODEC LTDA",
    "Rut": "76127937-8",
    "Cuenta Acceso a  SVL": "autoredec@svl.cl"
  },
  {
    "CodProv\nOdbms": "",
    "id\nSVL": 662,
    "Nombre": "ATAKAMA OUTDOOR",
    "Rut": "76475772-6",
    "Cuenta Acceso a  SVL": "atakama@svl.cl"
  },
  {
    "CodProv\nOdbms": 74587,
    "id\nSVL": "",
    "Nombre": "AGUAIR SPA",
    "Rut": "76964382-6",
    "Cuenta Acceso a  SVL": "aguair@svl.cl"
  },
  {
    "CodProv\nOdbms": 74638,
    "id\nSVL": "",
    "Nombre": "DECOGREEN",
    "Rut": "76347912-9",
    "Cuenta Acceso a  SVL": "decogreen@svl.cl"
  }
]